%YAML 1.1
%TAG !u! tag:unity3d.com,2011:
--- !u!114 &11400000
MonoBehaviour:
  m_ObjectHideFlags: 0
  m_CorrespondingSourceObject: {fileID: 0}
  m_PrefabInstance: {fileID: 0}
  m_PrefabAsset: {fileID: 0}
  m_GameObject: {fileID: 0}
  m_Enabled: 1
  m_EditorHideFlags: 0
  m_Script: {fileID: 11500000, guid: 51fc0cba60952fc4ea71d5fce26910f2, type: 3}
  m_Name: CrystalMaiden
  m_EditorClassIdentifier: 
  name: CrystalMaiden
  maxHealth: 200
  maxMana: 75
  healthRegen: 0
  manaRegen: 1
  baseArmor: -1
  magicResist: 0.25
  moveSpeed: 275
  baseDamage: 33
  attackSpeed: 100
  attackTime: 1.7
  attackRange: 5
  stats:
    str: 18
    agi: 16
    _int: 14
    primary: 2
  growth:
    str: 2.2
    agi: 1.6
    _int: 3.3
    primary: 2
  armorData: {fileID: 11400000, guid: 95d8f0556a3d45a4f9ee181e20955560, type: 2}
  attackType: 3
  icon: {fileID: 21300000, guid: 4dfe4954979bed04680fb3a108c06c75, type: 3}
