%YAML 1.1
%TAG !u! tag:unity3d.com,2011:
--- !u!114 &11400000
MonoBehaviour:
  m_ObjectHideFlags: 0
  m_CorrespondingSourceObject: {fileID: 0}
  m_PrefabInstance: {fileID: 0}
  m_PrefabAsset: {fileID: 0}
  m_GameObject: {fileID: 0}
  m_Enabled: 1
  m_EditorHideFlags: 0
  m_Script: {fileID: 11500000, guid: 64d4c3495aba06d4f912a8047264eb05, type: 3}
  m_Name: HeroArmor
  m_EditorClassIdentifier: 
  mArmorType: 2
  basicDmgReceiveMult: 0.75
  pierceDmgReceiveMult: 0.5
  siegeDmgReceiveMult: 1
  heroDmgReceiveMult: 1
