%YAML 1.1
%TAG !u! tag:unity3d.com,2011:
--- !u!114 &11400000
MonoBehaviour:
  m_ObjectHideFlags: 0
  m_CorrespondingSourceObject: {fileID: 0}
  m_PrefabInstance: {fileID: 0}
  m_PrefabAsset: {fileID: 0}
  m_GameObject: {fileID: 0}
  m_Enabled: 1
  m_EditorHideFlags: 0
  m_Script: {fileID: 11500000, guid: 51fc0cba60952fc4ea71d5fce26910f2, type: 3}
  m_Name: SiegeCreepMega
  m_EditorClassIdentifier: 
  name: SiegeCreepMega
  maxHealth: 975
  maxMana: 0
  healthRegen: 0
  manaRegen: 0
  baseArmor: 0
  magicResist: 80
  moveSpeed: 100
  baseDamage: 51
  attackSpeed: 100
  attackTime: 3
  attackRange: 20
  stats:
    str: 0
    agi: 0
    _int: 0
    primary: 0
  armorData: {fileID: 11400000, guid: 6b6ed85e7eb7b334594cc56b1a0d73f8, type: 2}
  attackType: 2
  icon: {fileID: 0}
