%YAML 1.1
%TAG !u! tag:unity3d.com,2011:
--- !u!114 &11400000
MonoBehaviour:
  m_ObjectHideFlags: 0
  m_CorrespondingSourceObject: {fileID: 0}
  m_PrefabInstance: {fileID: 0}
  m_PrefabAsset: {fileID: 0}
  m_GameObject: {fileID: 0}
  m_Enabled: 1
  m_EditorHideFlags: 0
  m_Script: {fileID: 11500000, guid: 506fe3db0cdae1548b4873281d727c65, type: 3}
  m_Name: Tier4Tower
  m_EditorClassIdentifier: 
  health: 2100
  armor: 21
  damage: 175
  attackSpeed: 0.95
  armorProtectionBonus: 5
  GoldBounty: 0
  armorData: {fileID: 11400000, guid: 6b6ed85e7eb7b334594cc56b1a0d73f8, type: 2}
  attackType: 2
