%YAML 1.1
%TAG !u! tag:unity3d.com,2011:
--- !u!1 &5524372364068658427
GameObject:
  m_ObjectHideFlags: 0
  m_CorrespondingSourceObject: {fileID: 0}
  m_PrefabInstance: {fileID: 0}
  m_PrefabAsset: {fileID: 0}
  serializedVersion: 6
  m_Component:
  - component: {fileID: 5524372364068658420}
  - component: {fileID: 942039623489692119}
  m_Layer: 2
  m_Name: Coup de Grace
  m_TagString: Untagged
  m_Icon: {fileID: 0}
  m_NavMeshLayer: 0
  m_StaticEditorFlags: 0
  m_IsActive: 1
--- !u!4 &5524372364068658420
Transform:
  m_ObjectHideFlags: 0
  m_CorrespondingSourceObject: {fileID: 0}
  m_PrefabInstance: {fileID: 0}
  m_PrefabAsset: {fileID: 0}
  m_GameObject: {fileID: 5524372364068658427}
  m_LocalRotation: {x: 0, y: 0, z: 0, w: 1}
  m_LocalPosition: {x: 0, y: 0, z: 0}
  m_LocalScale: {x: 1, y: 1, z: 1}
  m_Children: []
  m_Father: {fileID: 0}
  m_RootOrder: 0
  m_LocalEulerAnglesHint: {x: 0, y: 0, z: 0}
--- !u!114 &942039623489692119
MonoBehaviour:
  m_ObjectHideFlags: 0
  m_CorrespondingSourceObject: {fileID: 0}
  m_PrefabInstance: {fileID: 0}
  m_PrefabAsset: {fileID: 0}
  m_GameObject: {fileID: 5524372364068658427}
  m_Enabled: 1
  m_EditorHideFlags: 0
  m_Script: {fileID: 11500000, guid: cd533f888e1f51e489b47b74a57a5583, type: 3}
  m_Name: 
  m_EditorClassIdentifier: 
  isUltimate: 1
  isPassive: 1
  isChanneled: 0
  isMagicalDmg: 0
  isDispellable: 0
  icon: {fileID: 21300000, guid: a8aef610bcd891a4c827c2dd6dca18e1, type: 3}
  castRangePeUpgrade:
  - 0
  - 0
  - 0
  - 0
  manaCostPerUpgrade:
  - 0
  - 0
  - 0
  - 0
  cooldownDurationPerUpgrade:
  - 0
  - 0
  - 0
  - 0
  - 0
  OnChangeState:
    m_PersistentCalls:
      m_Calls: []
  OnFinishTargeting:
    m_PersistentCalls:
      m_Calls: []
  criticalDamagePerUpgrade:
  - 0
  - 2
  - 3.25
  - 4.5
