%YAML 1.1
%TAG !u! tag:unity3d.com,2011:
--- !u!1 &5524372364068658427
GameObject:
  m_ObjectHideFlags: 0
  m_CorrespondingSourceObject: {fileID: 0}
  m_PrefabInstance: {fileID: 0}
  m_PrefabAsset: {fileID: 0}
  serializedVersion: 6
  m_Component:
  - component: {fileID: 5524372364068658420}
  - component: {fileID: -4445862116886802428}
  m_Layer: 2
  m_Name: PhantomStrike
  m_TagString: Untagged
  m_Icon: {fileID: 0}
  m_NavMeshLayer: 0
  m_StaticEditorFlags: 0
  m_IsActive: 1
--- !u!4 &5524372364068658420
Transform:
  m_ObjectHideFlags: 0
  m_CorrespondingSourceObject: {fileID: 0}
  m_PrefabInstance: {fileID: 0}
  m_PrefabAsset: {fileID: 0}
  m_GameObject: {fileID: 5524372364068658427}
  m_LocalRotation: {x: 0, y: 0, z: 0, w: 1}
  m_LocalPosition: {x: 0, y: 0, z: 0}
  m_LocalScale: {x: 1, y: 1, z: 1}
  m_Children: []
  m_Father: {fileID: 0}
  m_RootOrder: 0
  m_LocalEulerAnglesHint: {x: 0, y: 0, z: 0}
--- !u!114 &-4445862116886802428
MonoBehaviour:
  m_ObjectHideFlags: 0
  m_CorrespondingSourceObject: {fileID: 0}
  m_PrefabInstance: {fileID: 0}
  m_PrefabAsset: {fileID: 0}
  m_GameObject: {fileID: 5524372364068658427}
  m_Enabled: 1
  m_EditorHideFlags: 0
  m_Script: {fileID: 11500000, guid: c769660056b4dcf4c80825d9fdfa4c63, type: 3}
  m_Name: 
  m_EditorClassIdentifier: 
  isUltimate: 0
  isPassive: 0
  isChanneled: 0
  isMagicalDmg: 0
  isDispellable: 0
  icon: {fileID: 21300000, guid: bab5c2c658e68234aa5912861ee92b82, type: 3}
  castRangePeUpgrade:
  - 0
  - 1000
  - 1000
  - 1000
  - 1000
  manaCostPerUpgrade:
  - 0
  - 35
  - 40
  - 45
  - 50
  cooldownDurationPerUpgrade:
  - 0
  - 11
  - 9
  - 7
  - 5
  OnChangeState:
    m_PersistentCalls:
      m_Calls: []
  OnFinishTargeting:
    m_PersistentCalls:
      m_Calls: []
  effect: {fileID: -5343097132817671303, guid: 3c2c0036fc3a49140911e0dce4d088de, type: 3}
  atkSpeedBonusPerUpgrade:
  - 0
  - 100
  - 125
  - 150
  - 175
  atkSpeedBonusDuration: 2
